{
	"gameboard" : [
		["oooo@ooooo"],
		["RooooooooG"],
		["xxooooooxx"],
		["oxxooooxxo"],
		["ooxxooxxoo"],
		["oooo$$oooo"],
		["ooxxooxxoo"],
		["oxxooooxxo"],
		["xxooooooxx"],
		["Booo@ooooY"]
	],
	"playerData": {
		"id": 1,
		"color": "R",
		"action": "U",
		"ip": "10.0.0.1",
		"securityKey": "WscvYu"
	},
	"playersState": {
		"R": "WU",
		"G": "1D-F",
		"B": "NO",
		"Y": "R-ZZ2",
		"P": "1EX",
		"L": "EX"
	}
}